<svg xmlns="http://www.w3.org/2000/svg" width="24" height="24" viewBox="0 0 24 24">
    <g fill="none" fill-rule="evenodd" stroke-linecap="round" stroke-linejoin="round" stroke-width="2">
        <path stroke="#4A90E2" d="M20.203 5.04L12 12 3.797 5.04z"/>
        <path stroke="#A8A8A8" d="M3.299 5.04H20.7v13.92H3.299z"/>
    </g>
</svg>
