<svg xmlns="http://www.w3.org/2000/svg" width="21" height="22" viewBox="0 0 21 22">
    <g fill="none" fill-rule="evenodd" stroke="#FFF" stroke-linecap="round" stroke-linejoin="round" stroke-width="2">
        <path d="M17.367 9.555a8.154 8.154 0 0 1-8.155 8.154 8.155 8.155 0 1 1 0-16.309 8.154 8.154 0 0 1 8.155 8.155zM14.978 15.321l4.896 4.895"/>
    </g>
</svg>
