<svg xmlns="http://www.w3.org/2000/svg" xmlns:xlink="http://www.w3.org/1999/xlink" width="22" height="36" viewBox="0 0 22 36">
    <defs>
        <path id="b" d="M580 207.183L592 220l-12 12.817"/>
    </defs>
    <g fill="none" fill-rule="evenodd" stroke-linecap="round" stroke-linejoin="round" transform="translate(-575 -203)">
        <use stroke="#4a90e2" stroke-width="2" xlink:href="#b"/>
    </g>
</svg>
